Advertisement_Analytics
…
## -- Attaching packages ------------------------------------------------------------------------------------- tidyverse 1.3.0 --

## v ggplot2 3.3.0     v dplyr   0.8.5
## v tibble  2.1.3     v stringr 1.4.0
## v tidyr   1.0.2     v forcats 0.5.0
## v purrr   0.3.3

## -- Conflicts ---------------------------------------------------------------------------------------- tidyverse_conflicts() --
## x dplyr::filter() masks stats::filter()
## x dplyr::lag()    masks stats::lag()

my_data <- as_tibble(df)
my_data

## # A tibble: 1,000 x 10
##    `Daily Time Spe~   Age `Area Income` `Daily Internet~ `Ad Topic Line` City 
##               <dbl> <dbl>         <dbl>            <dbl> <chr>           <chr>
##  1             69.0    35        61834.             256. Cloned 5thgene~ Wrig~
##  2             80.2    31        68442.             194. Monitored nati~ West~
##  3             69.5    26        59786.             236. Organic bottom~ Davi~
##  4             74.2    29        54806.             246. Triple-buffere~ West~
##  5             68.4    35        73890.             226. Robust logisti~ Sout~
##  6             60.0    23        59762.             227. Sharable clien~ Jami~
##  7             88.9    33        53853.             208. Enhanced dedic~ Bran~
##  8             66      48        24593.             132. Reactive local~ Port~
##  9             74.5    30        68862              222. Configurable c~ West~
## 10             69.9    20        55642.             184. Mandatory homo~ Rami~
## # ... with 990 more rows, and 4 more variables: Male <dbl>, Country <chr>,
## #   Timestamp <chr>, `Clicked on Ad` <dbl>
…
#checking the culumns
ls(df)

##  [1] "Ad Topic Line"            "Age"                     
##  [3] "Area Income"              "City"                    
##  [5] "Clicked on Ad"            "Country"                 
##  [7] "Daily Internet Usage"     "Daily Time Spent on Site"
##  [9] "Male"                     "Timestamp"

# checking the shape of the dataset

my_data

## # A tibble: 1,000 x 10
##    `Daily Time Spe~   Age `Area Income` `Daily Internet~ `Ad Topic Line` City 
##               <dbl> <dbl>         <dbl>            <dbl> <chr>           <chr>
##  1             69.0    35        61834.             256. Cloned 5thgene~ Wrig~
##  2             80.2    31        68442.             194. Monitored nati~ West~
##  3             69.5    26        59786.             236. Organic bottom~ Davi~
##  4             74.2    29        54806.             246. Triple-buffere~ West~
##  5             68.4    35        73890.             226. Robust logisti~ Sout~
##  6             60.0    23        59762.             227. Sharable clien~ Jami~
##  7             88.9    33        53853.             208. Enhanced dedic~ Bran~
##  8             66      48        24593.             132. Reactive local~ Port~
##  9             74.5    30        68862              222. Configurable c~ West~
## 10             69.9    20        55642.             184. Mandatory homo~ Rami~
## # ... with 990 more rows, and 4 more variables: Male <dbl>, Country <chr>,
## #   Timestamp <chr>, `Clicked on Ad` <dbl>
…
# removing the outliers in the Area_income column
Q <- quantile(my_data$Area_Income, probs=c(.25, .75), na.rm = FALSE)
iqr <- IQR(my_data$Area_Income)
up <-  Q[2]+1.5*iqr # Upper Range  
low<- Q[1]-1.5*iqr # Lower Range
eliminated<- subset(my_data, my_data$Area_Income > (Q[1] - 1.5*iqr) & my_data$Area_Income < (Q[2]+1.5*iqr))

eliminated

## # A tibble: 991 x 10
##    Daily_Time_Spen~   Age Area_Income Daily_Internet_~ Ad_Topic_Line City   Male
##               <dbl> <dbl>       <dbl>            <dbl> <chr>         <chr> <dbl>
##  1             69.0    35      61834.             256. Cloned 5thge~ Wrig~     0
##  2             80.2    31      68442.             194. Monitored na~ West~     1
##  3             69.5    26      59786.             236. Organic bott~ Davi~     0
##  4             74.2    29      54806.             246. Triple-buffe~ West~     1
##  5             68.4    35      73890.             226. Robust logis~ Sout~     0
##  6             60.0    23      59762.             227. Sharable cli~ Jami~     1
##  7             88.9    33      53853.             208. Enhanced ded~ Bran~     0
##  8             66      48      24593.             132. Reactive loc~ Port~     1
##  9             74.5    30      68862              222. Configurable~ West~     1
## 10             69.9    20      55642.             184. Mandatory ho~ Rami~     1
## # ... with 981 more rows, and 3 more variables: Country <chr>, Timestamp <chr>,
## #   Clicked_on_Ad <dbl>
…
There were no outliers for the daily internet usage

# Cheking the dataset shape after cleaning.
eliminated

## # A tibble: 991 x 10
##    Daily_Time_Spen~   Age Area_Income Daily_Internet_~ Ad_Topic_Line City   Male
##               <dbl> <dbl>       <dbl>            <dbl> <chr>         <chr> <dbl>
##  1             69.0    35      61834.             256. Cloned 5thge~ Wrig~     0
##  2             80.2    31      68442.             194. Monitored na~ West~     1
##  3             69.5    26      59786.             236. Organic bott~ Davi~     0
##  4             74.2    29      54806.             246. Triple-buffe~ West~     1
##  5             68.4    35      73890.             226. Robust logis~ Sout~     0
##  6             60.0    23      59762.             227. Sharable cli~ Jami~     1
##  7             88.9    33      53853.             208. Enhanced ded~ Bran~     0
##  8             66      48      24593.             132. Reactive loc~ Port~     1
##  9             74.5    30      68862              222. Configurable~ West~     1
## 10             69.9    20      55642.             184. Mandatory ho~ Rami~     1
## # ... with 981 more rows, and 3 more variables: Country <chr>, Timestamp <chr>,
## #   Clicked_on_Ad <dbl>
…
The distristribution of the participants clicking the ad is 50% to 50%

f) Country

# Compute the frequency
library(dplyr)
df <- eliminated %>%
  group_by(Country) %>%
  summarise(counts = n())
df

## # A tibble: 237 x 2
##    Country                                      counts
##    <chr>                                         <int>
##  1 Afghanistan                                       8
##  2 Albania                                           7
##  3 Algeria                                           5
##  4 American Samoa                                    5
##  5 Andorra                                           2
##  6 Angola                                            4
##  7 Anguilla                                          6
##  8 Antarctica (the territory South of 60 deg S)      3
##  9 Antigua and Barbuda                               5
## 10 Argentina                                         2
## # ... with 227 more rows

Bivariate Analysis.

Overal correlation matrix

x = subset(eliminated, select = -c(Ad_Topic_Line, City, Country, Timestamp))
x

## # A tibble: 991 x 6
##    Daily_Time_Spent_on~   Age Area_Income Daily_Internet_Us~  Male Clicked_on_Ad
##                   <dbl> <dbl>       <dbl>              <dbl> <dbl>         <dbl>
##  1                 69.0    35      61834.               256.     0             0
##  2                 80.2    31      68442.               194.     1             0
##  3                 69.5    26      59786.               236.     0             0
##  4                 74.2    29      54806.               246.     1             0
##  5                 68.4    35      73890.               226.     0             0
##  6                 60.0    23      59762.               227.     1             0
##  7                 88.9    33      53853.               208.     0             0
##  8                 66      48      24593.               132.     1             1
##  9                 74.5    30      68862                222.     1             0
## 10                 69.9    20      55642.               184.     1             0
## # ... with 981 more rows
…
